<?xml version="1.0" encoding="UTF-8" standalone="no"?>
<!-- Created with Inkscape (http://www.inkscape.org/) -->

<svg
   xmlns:dc="http://purl.org/dc/elements/1.1/"
   xmlns:cc="http://creativecommons.org/ns#"
   xmlns:rdf="http://www.w3.org/1999/02/22-rdf-syntax-ns#"
   xmlns:svg="http://www.w3.org/2000/svg"
   xmlns="http://www.w3.org/2000/svg"
   xmlns:sodipodi="http://sodipodi.sourceforge.net/DTD/sodipodi-0.dtd"
   xmlns:inkscape="http://www.inkscape.org/namespaces/inkscape"
   version="1.1"
   id="svg4485"
   xml:space="preserve"
   width="503.93866"
   height="377.95334"
   viewBox="0 0 503.93865 377.95335"
   sodipodi:docname="Sumitomo_Electic_Corporate_Symbolmark_BK.svg"
   inkscape:version="0.92.0 r15299"><metadata
     id="metadata4491"><rdf:RDF><cc:Work
         rdf:about=""><dc:format>image/svg+xml</dc:format><dc:type
           rdf:resource="http://purl.org/dc/dcmitype/StillImage" /><dc:title></dc:title></cc:Work></rdf:RDF></metadata><defs
     id="defs4489" /><sodipodi:namedview
     pagecolor="#ffffff"
     bordercolor="#666666"
     borderopacity="1"
     objecttolerance="10"
     gridtolerance="10"
     guidetolerance="10"
     inkscape:pageopacity="0"
     inkscape:pageshadow="2"
     inkscape:window-width="1366"
     inkscape:window-height="746"
     id="namedview4487"
     showgrid="false"
     inkscape:zoom="0.72570891"
     inkscape:cx="268.33114"
     inkscape:cy="231.49778"
     inkscape:window-x="1358"
     inkscape:window-y="-8"
     inkscape:window-maximized="1"
     inkscape:current-layer="g4495"
     fit-margin-top="0"
     fit-margin-left="0"
     fit-margin-right="0"
     fit-margin-bottom="0" /><g
     id="g4493"
     inkscape:groupmode="layer"
     inkscape:label="Sumitomo_Electic_Corporate_Symbolmark_BK"
     transform="matrix(1.3333333,0,0,-1.3333333,0,377.95334)"><g
       id="g4495"
       transform="translate(386.8218,297.7144)"
       style="fill:#fffffa;fill-opacity:1"><path
         d="m -232.2038,-155.9814 34.359,25.77 34.361,-25.77 -34.36,-25.769 z m 223.336002,12.884 -68.717,51.539013 -17.181,-12.884013 -34.360002,25.770013 17.178,12.884 -68.717,51.539 -17.179,-12.884 -17.181,12.884 -68.718,-51.539 17.18,-12.884 -34.36,-25.770013 -17.18,12.884013 -68.719,-51.539013 17.181,-12.884 -17.18,-12.884 68.718,-51.539 17.18,12.883 34.359,-25.768 -17.179,-12.884 68.718,-51.541 17.18,12.884 17.18,-12.884 68.717,51.541 -17.178,12.884 34.360002,25.768 17.179,-12.883 68.719,51.539 -17.181,12.884 z"
         style="fill:#fffffa;fill-opacity:1;fill-rule:nonzero;stroke:none"
         id="path4497"
         inkscape:connector-curvature="0" /></g></g></svg>